{
  "modelTypeList": [
    {
    "modelType": "Corolla",
    "modelCode": "10001"
    },
    {
      "modelType": "Levin",
      "modelCode": "10002"
    },
    {
      "modelType": "Camry",
      "modelCode": "10003"
    },
    {
      "modelType": "Crown",
      "modelCode": "10004"
    }
   
],
  "errorcode": "0",
  "errordesc": "Successful"
}