[{
  "assetStatus": "A",
  "description": "ALL",
  "assetCount": ""
}, {
  "assetStatus": "N",
  "description": "NEW",
  "assetCount": ""
}, {
  "assetStatus": "C",
  "description": "CONTRACTED",
  "assetCount": ""
}, {
  "assetStatus": "D",
  "description": "DISPOSED",
  "assetCount": ""
}, {
  "assetStatus": "B",
  "description": "BORROWED",
  "assetCount": ""
}, {
  "assetStatus": "S",
  "description": "SERVICE & REPAIRS",
  "assetCount": ""
}]