{
	"txndate":"27-09-2018",
	"transactionno":"411114",
	"errormsg":"Payee Corporation Not Found",
	"errorcode":"0",
	"transactionNumber":"411114",
	"txnamount":"100",
	"availablebal":2531707.4,
	"frmAccountBal":2531707.4
	}