{
  "branchlist": [
    {
      "address1": "BIC BANK LAO CO.,LTD CORPORATE CENTER",
      "address2": "ORTIGAS AVENUE, GREENHILLS",
      "city": "SAN JUAN, METRO MANILA",
      "branchcd": "00168",
      "branchname": "HEAD OFFICE",
      "postcd": "46150"
    },
    {
      "address1": "G/F SSS MAKATI BUILDING, AYALA AVE.",
      "address2": "COR. R.V. RUFINO ST. MAKATI CITY",
      "city": "SAN JUAN, METRO MANILA",
      "branchcd": "00160",
      "branchname": "AYALA",
      "postcd": "53310"
    },
    {
      "address1": "BIC BANK LAO CO.,LTD CORPORATE CENTER",
      "address2": "8004 ORTIGAS AVENUE, GREENHILLS",
      "branchcd": "00240",
      "branchname": "GREENHILLS",
      "city": "SAN JUAN CITY, METRO MANILA",
      "postcd": "53310"
    },
    {
      "address1": "G/F VISCO BUILDING, 493-495",
      "address2": "SAN FERNANDO STREET, BINONDO,",
      "branchcd": "00360",
      "branchname": "SAN FERNANDO",
      "city": "MANILA",
      "postcd": "13320"
    },
    {
      "address1": "G/F MASAGANA BUILDING, 963-965",
      "address2": "G. MASANGKAY STREET, BINONDO,",
      "branchcd": "00321",
      "branchname": "MASANGKAY",
      "city": "MANILA",
      "postcd": "22300"
    }
  ],
  "errorcode": "0",
  "errordesc": "Successful",
  "homebranch": {
    "address1": "G/F PRESTIGE TOWER,",
    "address2": "F. ORTIGAS, JR. ROAD, (FORMERLY",
    "branchcd": "00242",
    "branchname": "ORTIGAS CENTER",
    "city": "EMERALD AVE.) ORTIGAS CENTER,",
    "postcd": "PASIG CITY"
  }
}
