[{
  "applicationid": "A009",
  "referenceno": "A009",
  "registrationno": "A009",
  "eventseq": "A009",
  "status": "S",
  "statusdescription": "Approved",
  "claimdate": "2015-06-12",
  "insurcode": "02",
  "insurer": "Faiz",
  "workshopid":"RM200" ,
  "refno":"ref8231723",
  "regno":"reg212931823721",
  "eventname":"Asset Repaired",
  "driver":"nameddriver",
  "drivername":"King",
  "driverid":"DR934732438",
  "driverrelationship":"friend",
  "claimtype":"Third Party Claim",
  "submitdate":"2015-06-12",
  "claimamount":"12300",
  "doclocation":"KL",
  "policyreportno":"PL237432841",
  "extendofdamage":"moderate"
}, {
  "applicationid": "A008",
  "referenceno": "A008",
  "registrationno": "A008",
  "eventseq": "A008",
  "status": "A",
  "statusdescription": "Approved",
  "claimdate": "2015-06-12",
  "insurcode": "02",
  "insurer": "Faiz",
  "workshopid":"RM200" ,
  "refno":"ref8231723",
  "regno":"reg212931823721",
  "eventname":"Asset Repaired",
  "driver":"nameddriver",
  "drivername":"King",
  "driverid":"DR934732438",
  "driverrelationship":"friend",
  "claimtype":"Third Party Claim",
  "submitdate":"2015-06-12",
  "claimamount":"12300",
  "doclocation":"KL",
  "policyreportno":"PL237432841",
  "extendofdamage":"moderate"
}, {
  "applicationid": "A007",
  "referenceno": "A007",
  "registrationno": "A007",
  "eventseq": "A007",
  "status": "R",
  "statusdescription": "Approved",
  "claimdate": "2015-06-12",
  "insurcode": "02",
  "insurer": "Faiz",
  "workshopid":"RM200" ,
  "refno":"ref8231723",
  "regno":"reg212931823721",
  "eventname":"Asset Repaired",
  "driver":"nameddriver",
  "drivername":"King",
  "driverid":"DR934732438",
  "driverrelationship":"friend",
  "claimtype":"Third Party Claim",
  "submitdate":"2015-06-12",
  "claimamount":"12300",
  "doclocation":"KL",
  "policyreportno":"PL237432841",
  "extendofdamage":"moderate"
}, {
  "applicationid": "A001",
  "referenceno": "A001",
  "registrationno": "A001",
  "eventseq": "A001",
  "status": "AP",
  "statusdescription": "Approved",
  "claimdate": "2015-06-12",
  "insurcode": "02",
  "insurer": "Faiz",
  "workshopid":"RM200" ,
  "refno":"ref8231723",
  "regno":"reg212931823721",
  "eventname":"Asset Repaired",
  "driver":"nameddriver",
  "drivername":"King",
  "driverid":"DR934732438",
  "driverrelationship":"friend",
  "claimtype":"Third Party Claim",
  "submitdate":"2015-06-12",
  "claimamount":"12300",
  "doclocation":"KL",
  "policyreportno":"PL237432841",
  "extendofdamage":"moderate"
}, {
  "applicationid": "A002",
  "referenceno": "A002",
  "registrationno": "A002",
  "eventseq": "A002",
  "status": "CP",
  "statusdescription": "Approved",
  "claimdate": "2015-06-12",
  "insurcode": "02",
  "insurer": "Faiz",
  "workshopid":"RM200" ,
  "refno":"ref8231723",
  "regno":"reg212931823721",
  "eventname":"Asset Repaired",
  "driver":"nameddriver",
  "drivername":"King",
  "driverid":"DR934732438",
  "driverrelationship":"friend",
  "claimtype":"Third Party Claim",
  "submitdate":"2015-06-12",
  "claimamount":"12300",
  "doclocation":"KL",
  "policyreportno":"PL237432841",
  "extendofdamage":"moderate"
}, {
  "applicationid": "A003",
  "referenceno": "A003",
  "registrationno": "A003",
  "eventseq": "A003",
  "status": "A",
  "statusdescription": "Approved",
  "claimdate": "2015-06-12",
  "insurcode": "02",
  "insurer": "Faiz",
  "workshopid":"RM200" ,
  "refno":"ref8231723",
  "regno":"reg212931823721",
  "eventname":"Asset Repaired",
  "driver":"nameddriver",
  "drivername":"King",
  "driverid":"DR934732438",
  "driverrelationship":"friend",
  "claimtype":"Third Party Claim",
  "submitdate":"2015-06-12",
  "claimamount":"12300",
  "doclocation":"KL",
  "policyreportno":"PL237432841",
  "extendofdamage":"moderate"
}, {
  "applicationid": "A004",
  "referenceno": "A004",
  "registrationno": "A004",
  "eventseq": "A004",
  "status": "S",
  "statusdescription": "Approved",
  "claimdate": "2015-06-12",
  "insurcode": "02",
  "insurer": "Faiz",
  "workshopid":"RM200" ,
  "refno":"ref8231723",
  "regno":"reg212931823721",
  "eventname":"Asset Repaired",
  "driver":"nameddriver",
  "drivername":"King",
  "driverid":"DR934732438",
  "driverrelationship":"friend",
  "claimtype":"Third Party Claim",
  "submitdate":"2015-06-12",
  "claimamount":"12300",
  "doclocation":"KL",
  "policyreportno":"PL237432841",
  "extendofdamage":"moderate"
}, {
  "applicationid": "A001",
  "referenceno": "A001",
  "registrationno": "A001",
  "eventseq": "A001",
  "status": "S",
  "statusdescription": "Approved",
  "claimdate": "2015-06-12",
  "insurcode": "02",
  "insurer": "Faiz",
  "workshopid":"RM200" ,
  "refno":"ref8231723",
  "regno":"reg212931823721",
  "eventname":"Asset Repaired",
  "driver":"nameddriver",
  "drivername":"King",
  "driverid":"DR934732438",
  "driverrelationship":"friend",
  "claimtype":"Third Party Claim",
  "submitdate":"2015-06-12",
  "claimamount":"12300",
  "doclocation":"KL",
  "policyreportno":"PL237432841",
  "extendofdamage":"moderate"
}, {
  "applicationid": "A006",
  "referenceno": "A006",
  "registrationno": "A006",
  "eventseq": "A006",
  "status": "CP",
  "statusdescription": "Approved",
  "claimdate": "2015-06-12",
  "insurcode": "02",
  "insurer": "Faiz",
  "workshopid":"RM200" ,
  "refno":"ref8231723",
  "regno":"reg212931823721",
  "eventname":"Asset Repaired",
  "driver":"nameddriver",
  "drivername":"King",
  "driverid":"DR934732438",
  "driverrelationship":"friend",
  "claimtype":"Third Party Claim",
  "submitdate":"2015-06-12",
  "claimamount":"12300",
  "doclocation":"KL",
  "policyreportno":"PL237432841",
  "extendofdamage":"moderate"
}, {
  "applicationid": "A005",
  "referenceno": "A005",
  "registrationno": "A005",
  "eventseq": "A005",
  "status": "R",
  "statusdescription": "Approved",
  "claimdate": "2015-06-12",
  "insurcode": "02",
  "insurer": "Faiz",
  "workshopid":"RM200" ,
  "refno":"ref8231723",
  "regno":"reg212931823721",
  "eventname":"Asset Repaired",
  "driver":"nameddriver",
  "drivername":"King",
  "driverid":"DR934732438",
  "driverrelationship":"friend",
  "claimtype":"Third Party Claim",
  "submitdate":"2015-06-12",
  "claimamount":"12300",
  "doclocation":"KL",
  "policyreportno":"PL237432841",
  "extendofdamage":"moderate"
}]
