{
  "carReplacementList": [
    {
    "replaceType":"Permanent",
    "requestDate":"10-01-2019",
    "startDate":"10-01-2019",
    "returnDate":"11-01-2019",
    "reasonCode":"RCooop",
    "endDate":"11-01-2019"
    }
],
  "errorcode": "0",
  "errordesc": "Successful"
}